Shrek a sprawa polska - Projekt PSI autorstwa Macieja Kawelczyka, Szymona Pawłowskiego i Jakuba Maszkowskiego
…
  print("--- Podsumowanie sentymentu dla każdego filmu ---")

## [1] "--- Podsumowanie sentymentu dla każdego filmu ---"

  print(sentiment_summary_per_film)

## # A tibble: 32 × 4
##    Film   Dictionary Sentiment Count
##    <chr>  <chr>      <fct>     <int>
##  1 Shrek1 GI         negative    491
##  2 Shrek1 GI         neutral    3057
##  3 Shrek1 GI         positive    882
##  4 Shrek1 GI         <NA>       4248
##  5 Shrek1 QDAP       negative    356
##  6 Shrek1 QDAP       neutral    3345
##  7 Shrek1 QDAP       positive    729
##  8 Shrek1 QDAP       <NA>       4248
##  9 Shrek2 GI         negative    451
## 10 Shrek2 GI         neutral    2642
## # ℹ 22 more rows
…
